C:\Users\TKIBU66\Desktop\testcourse\testdriven\src\main\java\testdrivenjunit\Calculator.java
C:\Users\TKIBU66\Desktop\testcourse\testdriven\src\main\java\testdrivenjunit\Main.java
C:\Users\TKIBU66\Desktop\testcourse\testdriven\src\main\java\testdrivenjunit\BuiltInFunction.java
